{
	"version": 2,
	"settings": {
		"color": {
			"palette": [
				{
					"name": "Space Cadet",
					"slug": "space-cadet",
					"color": "#160F50"
				},
				{
					"name": "Violets Are Blue",
					"slug": "violets-are-blue",
					"color": "#8655FF"
				}
			]
		}
	},
	"supports": {
		"spacing": {
			"margin": [
				"top",
				"bottom"
			],
			"padding": true,
			"blockGap": [
				"horizontal",
				"vertical"
			]
		}
	}
}