{
    "name": "acf/catalyx-block-eight",
    "title": "Catalyx Block Eight",
    "description": "Catalyx Block Eight",
    "category": "theme",
    "icon": "admin-comments",
    "apiVersion": 2,
    "keywords": [
        "menu",
        "contact"
    ],
    "acf": {
        "mode": "preview",
        "renderTemplate": "render.php"
    },
    "styles": [
        { "name": "default", "label": "Default", "isDefault": true }
    ],
    "style": [ "file:./style.min.css", "block-style" ],
    "supports": {
        "anchor": true,
        "color": {
            "text": true
        },
        "alignText": true,
        "spacing": {
            "margin": [
                "top",
                "bottom"
            ],
            "padding": true
        },
        "typography": {
            "lineHeight": true,
            "fontSize": true
        },
        "fullHeight": true
    }
}